{
    "id_user":"",
    "recette_favorie":[],
    "recette_param":{
        "type_de_plat":{
            "url_para":"dt",
            "values":{"entree":false,
                "platprincipal":false,
                "dessert":false,
                "amusegueule":false,
                "accompagnement":false,
                "sauce":false,
                "boisson":true,
                "confiserie":false}
        },
        "difficulte":{
            "url_para":"dif",
            "values":{"1":true,
                "2":true,
                "3":true,
                "4":true}
        },
        "cout":{
            "url_para":"exp",
            "values":{"1":true,
                "2":true,
                "3":true}
        },
        "regime":{
            "url_para":"prt",
            "values":{"1":false,
                "2":false,
                "3":false,
                "4":true}
        },
        "materiel":{
            "url_para":"rct",
            "values":{"1":true,
                "2":true,
                "3":true,
                "4":true,
                "5":true}
        },
        "temps_de_cuisine":{
            "url_para":"ttlt",
            "values":{"15":true,
                "30":true,
                "45":true}
        }
    }
}